<svg width="202" height="300" viewBox="0 0 202 302" fill="none" xmlns="http://www.w3.org/2000/svg">
<path d="M6.08911 299.222L2.70297 295.378C1.70237 294.238 1.14366 292.7 1.14852 291.1L1 10.9C0.99886 9.29847 1.56104 7.76115 2.56436 6.62222L5.94059 2.76666C6.43259 2.2078 7.01841 1.76392 7.6642 1.46068C8.30999 1.15744 9.00293 1.00087 9.70297 1H192.158C192.858 1.00087 193.551 1.15744 194.197 1.46068C194.843 1.76392 195.429 2.2078 195.921 2.76666L199.297 6.62222C200.3 7.76115 200.862 9.29847 200.861 10.9L201 291.1C201.005 292.7 200.446 294.238 199.446 295.378L196.059 299.222C195.569 299.784 194.984 300.231 194.338 300.536C193.692 300.841 192.998 300.999 192.297 301H9.84158C9.14226 300.998 8.45029 300.84 7.80602 300.535C7.16176 300.229 6.57811 299.783 6.08911 299.222V299.222Z" stroke="#3E3E3E" stroke-width="2" stroke-miterlimit="10"/>
<path d="M8.28714 3.15552H191.376C192.076 3.15638 192.769 3.31296 193.415 3.6162C194.061 3.91943 194.647 4.36332 195.139 4.92218L197.406 7.51105C198.409 8.64999 198.971 10.1873 198.97 11.7888L199.109 290.211C199.107 291.81 198.55 293.345 197.554 294.489L195.277 297.078C194.786 297.637 194.2 298.082 193.554 298.385C192.908 298.689 192.215 298.845 191.515 298.844H10.6337C9.93339 298.845 9.23995 298.69 8.59394 298.386C7.94792 298.083 7.36229 297.638 6.8713 297.078L4.60397 294.489C3.60428 293.348 3.04574 291.811 3.04952 290.211L2.901 11.7888C2.89986 10.1873 3.46205 8.64999 4.46536 7.51105L8.29704 3.15552H8.28714Z" fill="#3E3E3E"/>
<path d="M128.888 73.8737V79.6172C128.885 80.4453 129.069 81.2634 129.426 82.0103C129.786 82.7659 130.304 83.4352 130.946 83.9726V85.0196C130.946 85.0196 130.946 87.8435 126.902 87.8435H111.524C107.511 87.8435 107.475 85.0196 107.475 85.0196V83.9547C108.12 83.4191 108.64 82.7495 109 81.9923C109.355 81.2445 109.539 80.427 109.538 79.5992V73.8557C109.541 73.0291 109.361 72.2121 109.012 71.4626C108.653 70.7084 108.139 70.0379 107.505 69.4943V68.4832C107.505 68.4832 107.535 65.6593 111.548 65.6593H126.926C130.946 65.6593 130.97 68.4832 130.97 68.4832V69.5302C130.325 70.0671 129.802 70.7363 129.438 71.4925C129.078 72.2348 128.89 73.0487 128.888 73.8737V73.8737Z" fill="#242122"/>
<path d="M132.441 70.3343L132.752 70.1036V67.5841C132.75 67.1099 132.65 66.6411 132.458 66.2067C132.266 65.7723 131.985 65.3816 131.634 65.0587C130.9 64.3815 129.934 64.0034 128.93 64H109.792C108.796 64.0082 107.84 64.3861 107.112 65.0587C106.763 65.3823 106.483 65.7733 106.292 66.2076C106.101 66.6419 106.001 67.1104 106 67.5841V70.1154L106.311 70.3461C106.834 70.7187 107.268 71.199 107.585 71.7537C106.98 73.0571 106.629 74.4617 106.55 75.8938C106.426 75.9505 106.32 76.0407 106.245 76.154C106.171 76.2624 106.132 76.3901 106.132 76.5207C106.132 76.6513 106.171 76.779 106.245 76.8874C106.322 76.9975 106.427 77.0853 106.55 77.1417C106.63 78.5736 106.981 79.9779 107.585 81.2818C107.268 81.8348 106.833 82.3131 106.311 82.6835L106 82.926V89H132.77V82.92L132.459 82.6775C131.94 82.3054 131.508 81.8274 131.191 81.2758C131.793 79.9717 132.142 78.5673 132.22 77.1358C132.343 77.0794 132.448 76.9916 132.525 76.8815C132.602 76.7742 132.643 76.6462 132.645 76.5148C132.644 76.3815 132.602 76.2517 132.525 76.1422C132.448 76.032 132.343 75.9442 132.22 75.8879C132.142 74.4563 131.793 73.052 131.191 71.7478C131.5 71.1929 131.926 70.7106 132.441 70.3343V70.3343ZM107.202 77.0826C107.308 77.0198 107.396 76.9325 107.459 76.8282C107.521 76.7267 107.55 76.6093 107.543 76.4911C107.55 76.373 107.521 76.2556 107.459 76.154C107.398 76.0485 107.309 75.9608 107.202 75.8997C107.256 74.7813 107.492 73.6789 107.902 72.635C107.988 72.9614 108.032 73.2972 108.033 73.6345V79.3123C108.031 79.6476 107.987 79.9813 107.902 80.3059C107.498 79.2749 107.261 78.1869 107.202 77.0826V77.0826ZM131.125 84.6766C131.125 84.6766 131.125 87.4682 127.082 87.4682H111.688C107.675 87.4682 107.639 84.6766 107.639 84.6766V83.6416C108.284 83.1121 108.804 82.4501 109.164 81.7017C109.519 80.9624 109.703 80.1543 109.702 79.3359V73.6582C109.704 72.8409 109.525 72.0333 109.176 71.2924C108.816 70.5468 108.303 69.884 107.669 69.3466V68.3471C107.669 68.3471 107.699 65.5555 111.712 65.5555H127.088C131.107 65.5555 131.131 68.3471 131.131 68.3471V69.3821C130.49 69.9133 129.972 70.575 129.612 71.322C129.258 72.0613 129.074 72.8694 129.074 73.6877V79.3655C129.074 80.1838 129.258 80.992 129.612 81.7313C129.972 82.4783 130.49 83.1399 131.131 83.6712L131.125 84.6766ZM131.562 75.9411C131.457 76.0023 131.37 76.0901 131.311 76.1954C131.251 76.298 131.22 76.4143 131.221 76.5325C131.214 76.6507 131.243 76.7681 131.305 76.8696C131.368 76.9739 131.457 77.0612 131.562 77.124C131.501 78.242 131.262 79.3436 130.856 80.3887C130.766 80.065 130.72 79.7308 130.719 79.3951V73.7114C130.718 73.3697 130.765 73.0295 130.856 72.7C131.252 73.7391 131.484 74.8322 131.544 75.9411H131.562Z" fill="#E2E2E2"/>
<path d="M128.888 45.8737V51.6172C128.885 52.4452 129.069 53.2634 129.426 54.0103C129.786 54.7659 130.304 55.4352 130.946 55.9726V57.0196C130.946 57.0196 130.946 59.8435 126.902 59.8435H111.524C107.511 59.8435 107.475 57.0196 107.475 57.0196V55.9547C108.12 55.4191 108.64 54.7494 109 53.9923C109.355 53.2445 109.539 52.427 109.538 51.5992V45.8557C109.541 45.0291 109.361 44.212 109.012 43.4626C108.653 42.7084 108.139 42.0379 107.505 41.4943V40.4832C107.505 40.4832 107.535 37.6593 111.548 37.6593H126.926C130.946 37.6593 130.97 40.4832 130.97 40.4832V41.5302C130.325 42.0671 129.802 42.7363 129.438 43.4925C129.078 44.2348 128.89 45.0487 128.888 45.8737V45.8737Z" fill="#242122"/>
<path d="M132.441 42.3343L132.752 42.1036V39.5841C132.75 39.1099 132.65 38.6411 132.458 38.2067C132.266 37.7723 131.985 37.3816 131.634 37.0587C130.9 36.3815 129.934 36.0034 128.93 36H109.792C108.796 36.0082 107.84 36.3861 107.112 37.0587C106.763 37.3823 106.483 37.7733 106.292 38.2076C106.101 38.6419 106.001 39.1104 106 39.5841V42.1154L106.311 42.3461C106.834 42.7187 107.268 43.199 107.585 43.7537C106.98 45.0571 106.629 46.4617 106.55 47.8938C106.426 47.9505 106.32 48.0407 106.245 48.154C106.171 48.2624 106.132 48.3901 106.132 48.5207C106.132 48.6513 106.171 48.779 106.245 48.8874C106.322 48.9975 106.427 49.0853 106.55 49.1417C106.63 50.5736 106.981 51.9779 107.585 53.2818C107.268 53.8348 106.833 54.3131 106.311 54.6835L106 54.926V61H132.77V54.92L132.459 54.6775C131.94 54.3054 131.508 53.8274 131.191 53.2758C131.793 51.9717 132.142 50.5673 132.22 49.1358C132.343 49.0794 132.448 48.9916 132.525 48.8815C132.602 48.7742 132.643 48.6462 132.645 48.5148C132.644 48.3815 132.602 48.2517 132.525 48.1422C132.448 48.032 132.343 47.9442 132.22 47.8879C132.142 46.4563 131.793 45.052 131.191 43.7478C131.5 43.1929 131.926 42.7106 132.441 42.3343V42.3343ZM107.202 49.0826C107.308 49.0198 107.396 48.9325 107.459 48.8282C107.521 48.7267 107.55 48.6093 107.543 48.4911C107.55 48.373 107.521 48.2556 107.459 48.154C107.398 48.0485 107.309 47.9608 107.202 47.8997C107.256 46.7813 107.492 45.6789 107.902 44.635C107.988 44.9614 108.032 45.2972 108.033 45.6345V51.3123C108.031 51.6476 107.987 51.9813 107.902 52.3059C107.498 51.2749 107.261 50.1869 107.202 49.0826V49.0826ZM131.125 56.6766C131.125 56.6766 131.125 59.4682 127.082 59.4682H111.688C107.675 59.4682 107.639 56.6766 107.639 56.6766V55.6416C108.284 55.1121 108.804 54.4501 109.164 53.7017C109.519 52.9624 109.703 52.1543 109.702 51.3359V45.6582C109.704 44.8409 109.525 44.0333 109.176 43.2924C108.816 42.5468 108.303 41.884 107.669 41.3466V40.3471C107.669 40.3471 107.699 37.5555 111.712 37.5555H127.088C131.107 37.5555 131.131 40.3471 131.131 40.3471V41.3821C130.49 41.9133 129.972 42.575 129.612 43.322C129.258 44.0613 129.074 44.8694 129.074 45.6877V51.3655C129.074 52.1838 129.258 52.992 129.612 53.7313C129.972 54.4783 130.49 55.1399 131.131 55.6712L131.125 56.6766ZM131.562 47.9411C131.457 48.0023 131.37 48.0901 131.311 48.1954C131.251 48.298 131.22 48.4143 131.221 48.5325C131.214 48.6507 131.243 48.7681 131.305 48.8696C131.368 48.9739 131.457 49.0612 131.562 49.124C131.501 50.242 131.262 51.3436 130.856 52.3887C130.766 52.065 130.72 51.7308 130.719 51.3951V45.7114C130.718 45.3697 130.765 45.0295 130.856 44.7C131.252 45.7391 131.484 46.8322 131.544 47.9411H131.562Z" fill="#E2E2E2"/>
<path d="M40.8881 73.8737V79.6172C40.8848 80.4452 41.0689 81.2634 41.4264 82.0103C41.7861 82.7659 42.3042 83.4352 42.9456 83.9726V85.0196C42.9456 85.0196 42.9457 87.8435 38.9023 87.8435H23.5243C19.5108 87.8435 19.4749 85.0196 19.4749 85.0196V83.9547C20.1197 83.4191 20.6402 82.7494 21.0002 81.9923C21.355 81.2445 21.5389 80.427 21.5385 79.5992V73.8557C21.5406 73.0291 21.3609 72.212 21.0121 71.4626C20.6526 70.7084 20.1392 70.0379 19.5048 69.4943V68.4832C19.5048 68.4832 19.5347 65.6593 23.5482 65.6593H38.9262C42.9457 65.6593 42.9696 68.4832 42.9696 68.4832V69.5302C42.3246 70.0671 41.8025 70.7363 41.4384 71.4925C41.0785 72.2348 40.8904 73.0487 40.8881 73.8737V73.8737Z" fill="#242122"/>
<path d="M44.4412 70.3343L44.7522 70.1036V67.5841C44.7504 67.1099 44.6503 66.6411 44.4579 66.2067C44.2655 65.7723 43.985 65.3816 43.6338 65.0587C42.8998 64.3815 41.9343 64.0034 40.9305 64H21.7918C20.7961 64.0082 19.8398 64.3861 19.1124 65.0587C18.7626 65.3823 18.4834 65.7733 18.2921 66.2076C18.1008 66.6419 18.0014 67.1104 18 67.5841V70.1154L18.311 70.3461C18.8336 70.7187 19.2682 71.199 19.5849 71.7537C18.9797 73.0571 18.6286 74.4617 18.5502 75.8938C18.4259 75.9505 18.3202 76.0407 18.2452 76.154C18.1714 76.2624 18.132 76.3901 18.132 76.5207C18.132 76.6513 18.1714 76.779 18.2452 76.8874C18.3222 76.9975 18.4275 77.0853 18.5502 77.1417C18.6302 78.5736 18.9812 79.9779 19.5849 81.2818C19.2681 81.8348 18.8334 82.3131 18.311 82.6835L18 82.926V89H44.7702V82.92L44.4592 82.6775C43.9399 82.3054 43.5075 81.8274 43.1912 81.2758C43.7932 79.9717 44.1421 78.5673 44.2199 77.1358C44.3427 77.0794 44.448 76.9916 44.525 76.8815C44.6017 76.7742 44.6434 76.6462 44.6446 76.5148C44.6435 76.3815 44.6018 76.2517 44.525 76.1422C44.448 76.032 44.3427 75.9442 44.2199 75.8879C44.1421 74.4563 43.7932 73.052 43.1912 71.7478C43.4997 71.1929 43.9262 70.7106 44.4412 70.3343V70.3343ZM19.2021 77.0826C19.3076 77.0198 19.3959 76.9325 19.4593 76.8282C19.5207 76.7267 19.5499 76.6093 19.5431 76.4911C19.5499 76.373 19.5207 76.2556 19.4593 76.154C19.3975 76.0485 19.3089 75.9608 19.2021 75.8997C19.2561 74.7813 19.4924 73.6789 19.9019 72.635C19.9875 72.9614 20.0317 73.2972 20.0335 73.6345V79.3123C20.0313 79.6476 19.9871 79.9813 19.9019 80.3059C19.4976 79.2749 19.2614 78.1869 19.2021 77.0826V77.0826ZM43.1254 84.6766C43.1254 84.6766 43.1254 87.4682 39.0824 87.4682H23.6878C19.6746 87.4682 19.6387 84.6766 19.6387 84.6766V83.6416C20.2835 83.1121 20.8039 82.4501 21.1639 81.7017C21.5186 80.9624 21.7025 80.1543 21.7021 79.3359V73.6582C21.7043 72.8409 21.5246 72.0333 21.1758 71.2924C20.8163 70.5468 20.3029 69.884 19.6686 69.3466V68.3471C19.6686 68.3471 19.6986 65.5555 23.7117 65.5555H39.0884C43.1075 65.5555 43.1314 68.3471 43.1314 68.3471V69.3821C42.49 69.9133 41.9719 70.575 41.6123 71.322C41.2577 72.0613 41.0738 72.8694 41.074 73.6877V79.3655C41.0736 80.1838 41.2575 80.992 41.6123 81.7313C41.9719 82.4783 42.49 83.1399 43.1314 83.6712L43.1254 84.6766ZM43.562 75.9411C43.457 76.0023 43.3703 76.0901 43.3108 76.1954C43.2513 76.298 43.2204 76.4143 43.2211 76.5325C43.2143 76.6507 43.2435 76.7681 43.3049 76.8696C43.3683 76.9739 43.4566 77.0612 43.562 77.124C43.5006 78.242 43.2625 79.3436 42.8563 80.3887C42.7662 80.065 42.72 79.7308 42.7187 79.3951V73.7114C42.7184 73.3697 42.7646 73.0295 42.8563 72.7C43.2523 73.7391 43.4843 74.8322 43.5441 75.9411H43.562Z" fill="#E2E2E2"/>
<path d="M40.8881 45.8737V51.6171C40.8848 52.4452 41.0689 53.2634 41.4264 54.0103C41.7861 54.7659 42.3042 55.4352 42.9456 55.9726V57.0196C42.9456 57.0196 42.9457 59.8435 38.9023 59.8435H23.5243C19.5108 59.8435 19.4749 57.0196 19.4749 57.0196V55.9547C20.1197 55.4191 20.6402 54.7494 21.0002 53.9923C21.355 53.2445 21.5389 52.427 21.5385 51.5992V45.8557C21.5406 45.0291 21.3609 44.212 21.0121 43.4626C20.6526 42.7084 20.1392 42.0379 19.5048 41.4943V40.4832C19.5048 40.4832 19.5347 37.6593 23.5482 37.6593H38.9262C42.9457 37.6593 42.9696 40.4832 42.9696 40.4832V41.5302C42.3246 42.0671 41.8025 42.7363 41.4384 43.4925C41.0785 44.2348 40.8904 45.0487 40.8881 45.8737V45.8737Z" fill="#242122"/>
<path d="M44.4412 42.3343L44.7522 42.1036V39.5841C44.7504 39.1099 44.6503 38.6411 44.4579 38.2067C44.2655 37.7723 43.985 37.3816 43.6338 37.0587C42.8998 36.3815 41.9343 36.0034 40.9305 36H21.7918C20.7961 36.0082 19.8398 36.3861 19.1124 37.0587C18.7626 37.3823 18.4834 37.7733 18.2921 38.2076C18.1008 38.6419 18.0014 39.1104 18 39.5841V42.1154L18.311 42.3461C18.8336 42.7187 19.2682 43.199 19.5849 43.7537C18.9797 45.0571 18.6286 46.4617 18.5502 47.8938C18.4259 47.9505 18.3202 48.0407 18.2452 48.154C18.1714 48.2624 18.132 48.3901 18.132 48.5207C18.132 48.6513 18.1714 48.779 18.2452 48.8874C18.3222 48.9975 18.4275 49.0853 18.5502 49.1417C18.6302 50.5736 18.9812 51.9779 19.5849 53.2818C19.2681 53.8348 18.8334 54.3131 18.311 54.6835L18 54.926V61H44.7702V54.92L44.4592 54.6775C43.9399 54.3054 43.5075 53.8274 43.1912 53.2758C43.7932 51.9717 44.1421 50.5673 44.2199 49.1358C44.3427 49.0794 44.448 48.9916 44.525 48.8815C44.6017 48.7742 44.6434 48.6462 44.6446 48.5148C44.6435 48.3815 44.6018 48.2517 44.525 48.1422C44.448 48.032 44.3427 47.9442 44.2199 47.8879C44.1421 46.4563 43.7932 45.052 43.1912 43.7478C43.4997 43.1929 43.9262 42.7106 44.4412 42.3343V42.3343ZM19.2021 49.0826C19.3076 49.0198 19.3959 48.9325 19.4593 48.8282C19.5207 48.7267 19.5499 48.6093 19.5431 48.4911C19.5499 48.373 19.5207 48.2556 19.4593 48.154C19.3975 48.0485 19.3089 47.9608 19.2021 47.8997C19.2561 46.7813 19.4924 45.6789 19.9019 44.635C19.9875 44.9614 20.0317 45.2972 20.0335 45.6345V51.3123C20.0313 51.6476 19.9871 51.9813 19.9019 52.3059C19.4976 51.2749 19.2614 50.1869 19.2021 49.0826V49.0826ZM43.1254 56.6766C43.1254 56.6766 43.1254 59.4682 39.0824 59.4682H23.6878C19.6746 59.4682 19.6387 56.6766 19.6387 56.6766V55.6416C20.2835 55.1121 20.8039 54.4501 21.1639 53.7017C21.5186 52.9624 21.7025 52.1543 21.7021 51.3359V45.6582C21.7043 44.8409 21.5246 44.0333 21.1758 43.2924C20.8163 42.5468 20.3029 41.884 19.6686 41.3466V40.3471C19.6686 40.3471 19.6986 37.5555 23.7117 37.5555H39.0884C43.1075 37.5555 43.1314 40.3471 43.1314 40.3471V41.3821C42.49 41.9133 41.9719 42.575 41.6123 43.322C41.2577 44.0613 41.0738 44.8694 41.074 45.6877V51.3655C41.0736 52.1838 41.2575 52.992 41.6123 53.7313C41.9719 54.4783 42.49 55.1399 43.1314 55.6712L43.1254 56.6766ZM43.562 47.9411C43.457 48.0023 43.3703 48.0901 43.3108 48.1954C43.2513 48.298 43.2204 48.4143 43.2211 48.5325C43.2143 48.6507 43.2435 48.7681 43.3049 48.8696C43.3683 48.9739 43.4566 49.0612 43.562 49.124C43.5006 50.242 43.2625 51.3436 42.8563 52.3887C42.7662 52.065 42.72 51.7308 42.7187 51.3951V45.7114C42.7184 45.3697 42.7646 45.0295 42.8563 44.7C43.2523 45.7391 43.4843 46.8322 43.5441 47.9411H43.562Z" fill="#E2E2E2"/>
<path d="M184.427 29.0056L17.5729 29.0056C20.5527 29.4725 23.304 30.1497 25.6985 31.0056L176.301 31.0056C178.692 30.1478 181.445 29.4704 184.427 29.0056V29.0056Z" stroke="white" stroke-miterlimit="10"/>
<path d="M184.854 108L18 108C20.9798 108.467 23.7311 109.144 26.1256 110L176.729 110C179.12 109.142 181.872 108.465 184.854 108V108Z" stroke="white" stroke-miterlimit="10"/>
<path d="M189.702 117.5H12.2979C11.5811 117.5 11 119.514 11 121.999V283.001C11 285.486 11.5811 287.5 12.2979 287.5H189.702C190.419 287.5 191 285.486 191 283.001V121.999C191 119.514 190.419 117.5 189.702 117.5Z" fill="#1D1D1D"/>
</svg>
